module gitlab.com/juaninsis/go-term-permissons

go 1.19

require (
	github.com/cilium/ebpf v0.10.0 // indirect
	github.com/cosiner/argv v0.1.0 // indirect
	github.com/cpuguy83/go-md2man/v2 v2.0.2 // indirect
	github.com/davecgh/go-spew v1.1.1 // indirect
	github.com/derekparker/trie v0.0.0-20221221181808-1424fce0c981 // indirect
	github.com/go-delve/delve v1.20.1 // indirect
	github.com/go-delve/liner v1.2.3-0.20220127212407-d32d89dd2a5d // indirect
	github.com/google/go-dap v0.7.0 // indirect
	github.com/hashicorp/golang-lru v0.5.4 // indirect
	github.com/inconshreveable/mousetrap v1.1.0 // indirect
	github.com/konsorten/go-windows-terminal-sequences v1.0.3 // indirect
	github.com/mattn/go-colorable v0.1.13 // indirect
	github.com/mattn/go-isatty v0.0.17 // indirect
	github.com/mattn/go-runewidth v0.0.14 // indirect
	github.com/pmezard/go-difflib v1.0.0 // indirect
	github.com/rivo/uniseg v0.4.4 // indirect
	github.com/russross/blackfriday/v2 v2.1.0 // indirect
	github.com/shurcooL/sanitized_anchor_name v1.0.0 // indirect
	github.com/sirupsen/logrus v1.9.0 // indirect
	github.com/spf13/cobra v1.6.1 // indirect
	github.com/spf13/pflag v1.0.5 // indirect
	github.com/stretchr/testify v1.8.2 // indirect
	go.starlark.net v0.0.0-20230302034142-4b1e35fe2254 // indirect
	golang.org/x/arch v0.3.0 // indirect
	golang.org/x/sys v0.6.0 // indirect
	gopkg.in/yaml.v2 v2.4.0 // indirect
	gopkg.in/yaml.v3 v3.0.1 // indirect
)
